{
    "package_name": "token",
    "lockfile_version": "1",
    "version": "1.0.0",
    "meta": {
        "authors": [
            "You!"
        ],
        "license": "MIT"
    },
    "build_dependencies": {
        "OpenZeppelin": "https://repo.pyr8.io/pyrofex/cryptofex/registry/open-zeppelin/2.0.0"
    }
}