{
  "language": "Solidity",
  "sources":
  {
    "token.sol":
    {
      "urls":
      [
        "./token.sol"
      ]
    }
  },
  "settings":
  {
    "remappings": [ "openzeppelin=./cf-packages/include/OpenZeppelin/" ],
    "evmVersion": "byzantium",
    "optimizer": {
      "enabled": true,
      "runs": 200
    },
    "outputSelection": {
      "*": {
        "*": [ "abi", "evm.bytecode.object" ]
      }
    }
  }
}